{"count":1002,"next":"http://127.0.0.1:8000/store/products/?page=2","previous":null,"results":[{"id":648,"title":"7up Diet, 355 Ml","description":"tincidunt eget tempus vel pede morbi porttitor lorem id ligula suspendisse ornare consequat lectus in est","slug":"-","inventory":82,"unit_price":500.19,"price_with_tax":550.2090000000001,"collection":5,"images":[{"id":2,"image":"store/images/main1.png"},{"id":3,"image":"store/images/bootstrap-4-logo-png-transparent.png"}],"vendor":"Grocerry","average_rating":0.0,"reviews_breakdown":{"total_reviews":5,"average_rating":0.0,"sentiment_counts":{"positive":2,"neutral":2,"negative":1},"sentiment_percentages":{"positive":40.0,"neutral":40.0,"negative":20.0}}},{"id":905,"title":"Absolut Citron","description":"dapibus dolor vel est donec odio justo sollicitudin ut suscipit a feugiat et eros","slug":"-","inventory":32,"unit_price":88.2,"price_with_tax":97.02000000000001,"collection":4,"images":[],"vendor":"Grocerry","average_rating":0.0,"reviews_breakdown":{"total_reviews":0,"average_rating":0.0,"sentiment_counts":{"positive":0,"neutral":0,"negative":0},"sentiment_percentages":{"positive":0,"neutral":0,"negative":0}}},{"id":288,"title":"Allspice - Jamaican","description":"rhoncus aliquet pulvinar sed nisl nunc rhoncus dui vel sem sed sagittis","slug":"-","inventory":71,"unit_price":46.53,"price_with_tax":51.18300000000001,"collection":4,"images":[],"vendor":null,"average_rating":0.0,"reviews_breakdown":{"total_reviews":0,"average_rating":0.0,"sentiment_counts":{"positive":0,"neutral":0,"negative":0},"sentiment_percentages":{"positive":0,"neutral":0,"negative":0}}},{"id":660,"title":"Amaretto","description":"tempor convallis nulla neque libero convallis eget eleifend luctus ultricies eu nibh quisque id","slug":"-","inventory":57,"unit_price":96.34,"price_with_tax":105.974,"collection":4,"images":[],"vendor":null,"average_rating":0.0,"reviews_breakdown":{"total_reviews":0,"average_rating":0.0,"sentiment_counts":{"positive":0,"neutral":0,"negative":0},"sentiment_percentages":{"positive":0,"neutral":0,"negative":0}}},{"id":737,"title":"Anchovy Paste - 56 G Tube","description":"lacus morbi quis tortor id nulla ultrices aliquet maecenas leo odio condimentum id luctus nec molestie sed","slug":"-","inventory":73,"unit_price":91.27,"price_with_tax":100.397,"collection":6,"images":[],"vendor":null,"average_rating":0.0,"reviews_breakdown":{"total_reviews":1,"average_rating":0.0,"sentiment_counts":{"positive":0,"neutral":1,"negative":0},"sentiment_percentages":{"positive":0.0,"neutral":100.0,"negative":0.0}}},{"id":520,"title":"Appetizer - Asian Shrimp Roll","description":"massa id lobortis convallis tortor risus dapibus augue vel accumsan","slug":"-","inventory":47,"unit_price":92.58,"price_with_tax":101.83800000000001,"collection":6,"images":[],"vendor":null,"average_rating":0.0,"reviews_breakdown":{"total_reviews":0,"average_rating":0.0,"sentiment_counts":{"positive":0,"neutral":0,"negative":0},"sentiment_percentages":{"positive":0,"neutral":0,"negative":0}}},{"id":864,"title":"Appetizer - Crab And Brie","description":"metus sapien ut nunc vestibulum ante ipsum primis in faucibus orci luctus et ultrices","slug":"-","inventory":94,"unit_price":77.29,"price_with_tax":85.019,"collection":5,"images":[],"vendor":null,"average_rating":0.0,"reviews_breakdown":{"total_reviews":0,"average_rating":0.0,"sentiment_counts":{"positive":0,"neutral":0,"negative":0},"sentiment_percentages":{"positive":0,"neutral":0,"negative":0}}},{"id":257,"title":"Appetizer - Sausage Rolls","description":"at velit eu est congue elementum in hac habitasse platea dictumst morbi vestibulum velit id","slug":"-","inventory":84,"unit_price":96.43,"price_with_tax":106.07300000000001,"collection":5,"images":[],"vendor":null,"average_rating":0.0,"reviews_breakdown":{"total_reviews":0,"average_rating":0.0,"sentiment_counts":{"positive":0,"neutral":0,"negative":0},"sentiment_percentages":{"positive":0,"neutral":0,"negative":0}}},{"id":604,"title":"Appetizer - Sausage Rolls","description":"luctus et ultrices posuere cubilia curae mauris viverra diam vitae","slug":"-","inventory":13,"unit_price":91.63,"price_with_tax":100.793,"collection":6,"images":[],"vendor":null,"average_rating":0.0,"reviews_breakdown":{"total_reviews":0,"average_rating":0.0,"sentiment_counts":{"positive":0,"neutral":0,"negative":0},"sentiment_percentages":{"positive":0,"neutral":0,"negative":0}}},{"id":615,"title":"Appetizer - Sausage Rolls","description":"rhoncus sed vestibulum sit amet cursus id turpis integer aliquet massa id lobortis convallis tortor risus dapibus augue vel accumsan","slug":"-","inventory":94,"unit_price":93.6,"price_with_tax":102.96000000000001,"collection":4,"images":[],"vendor":null,"average_rating":0.0,"reviews_breakdown":{"total_reviews":0,"average_rating":0.0,"sentiment_counts":{"positive":0,"neutral":0,"negative":0},"sentiment_percentages":{"positive":0,"neutral":0,"negative":0}}}]}